Management API • googleAnalyticsR
…
head(ga_data)

##   hour       date sessions bounceRate
## 1   00 2020-05-16       10   60.00000
## 2   00 2020-05-17        8   37.50000
## 3   00 2020-05-18        9   44.44444
## 4   00 2020-05-19        8   50.00000
## 5   00 2020-05-20       11   63.63636
## 6   00 2020-05-21        8   50.00000

# if we want totals per hour over the dates:
ga_aggregate(ga_data[,c("hour","sessions")], agg_names = "hour")

## # A tibble: 24 x 2
##    hour  sessions
##    <chr>    <dbl>
##  1 00          92
##  2 01          64
##  3 02          58
##  4 03          64
##  5 04          70
##  6 05          74
##  7 06          59
##  8 07          66
##  9 08          82
## 10 09          89
## # … with 14 more rows

# it knows not to sum metrics that are rates:
ga_aggregate(ga_data[,c("hour","bounceRate")], agg_names = "hour")

## # A tibble: 24 x 2
##    hour  bounceRate
##    <chr>      <dbl>
##  1 00          53.4
##  2 01          65.1
##  3 02          69.3
##  4 03          60.5
##  5 04          65.4
##  6 05          79.9
##  7 06          78.8
##  8 07          66.1
##  9 08          75.4
## 10 09          66.3
## # … with 14 more rows
…
