…
```r
# if we want totals per hour over the dates:
ga_aggregate(ga_data[,c("hour","sessions")], agg_names = "hour")
```

```
## # A tibble: 24 x 2
##    hour  sessions
##    <chr>    <dbl>
##  1 00          92
##  2 01          64
##  3 02          58
##  4 03          64
##  5 04          70
##  6 05          74
##  7 06          59
##  8 07          66
##  9 08          82
## 10 09          89
## # … with 14 more rows
```

```r
# it knows not to sum metrics that are rates:
ga_aggregate(ga_data[,c("hour","bounceRate")], agg_names = "hour")
```

```
## # A tibble: 24 x 2
##    hour  bounceRate
##    <chr>      <dbl>
##  1 00          53.4
##  2 01          65.1
##  3 02          69.3
##  4 03          60.5
##  5 04          65.4
##  6 05          79.9
##  7 06          78.8
##  8 07          66.1
##  9 08          75.4
## 10 09          66.3
## # … with 14 more rows
```
…
