…
Dimensions can be added to split out your results:

```r
# split out metrics by the dimensions specified
dimensions <- ga_data(
    my_property_id,
    metrics = c("activeUsers","sessions"),
    dimensions = c("date","city","dayOfWeek"),
    date_range = c("2020-03-31", "2020-04-27")
)

dimensions
# A tibble: 100 x 5
#   date       city      dayOfWeek activeUsers sessions
#   <date>     <chr>     <chr>           <dbl>    <dbl>
# 1 2020-04-08 (not set) 4                  18       21
# 2 2020-04-08 Rome      4                  12       14
# 3 2020-04-15 (not set) 4                   9       11
# 4 2020-04-27 (not set) 2                   9       11
# 5 2020-04-09 (not set) 5                   8       10
# 6 2020-04-14 (not set) 3                   8        8
# 7 2020-04-22 (not set) 4                   8        9
# 8 2020-03-31 (not set) 3                   7       10
# 9 2020-04-08 Bologna   4                   7        7
#10 2020-04-07 (not set) 3                   6        7
# … with 90 more rows
```
…
all_results <- ga_data(
    my_property_id,
    metrics = c("activeUsers","sessions"),
    dimensions = c("date","city","dayOfWeek"),
    date_range = c("2020-03-31", "2020-04-27"),
    limit = -1
)

all_results
# A tibble: 1,763 x 5
#   date       city      dayOfWeek activeUsers sessions
#   <date>     <chr>     <chr>           <dbl>    <dbl>
# 1 2020-04-08 (not set) 4                  18       21
# 2 2020-04-08 Rome      4                  12       14
# 3 2020-04-15 (not set) 4                   9       11
# 4 2020-04-27 (not set) 2                   9       11
# 5 2020-04-09 (not set) 5                   8       10
# 6 2020-04-14 (not set) 3                   8        8
# 7 2020-04-22 (not set) 4                   8        9
# 8 2020-03-31 (not set) 3                   7       10
# 9 2020-04-08 Bologna   4                   7        7
#10 2020-04-07 (not set) 3                   6        7
# … with 1,753 more rows
```
…
