Management API • googleAnalyticsR
…
head(ga_data)

##   hour       date sessions bounceRate
## 1   00 2019-03-03       11   90.90909
## 2   00 2019-03-04        5   80.00000
## 3   00 2019-03-05       20   75.00000
## 4   00 2019-03-06       10   80.00000
## 5   00 2019-03-07       73   79.45205
## 6   00 2019-03-08       20   90.00000

# if we want totals per hour over the dates:
aggregateGAData(ga_data[,c("hour","sessions")], agg_names = "hour")

## # A tibble: 24 x 2
##    hour  sessions
##    <chr>    <dbl>
##  1 00         173
##  2 01         131
##  3 02          99
##  4 03         110
##  5 04         107
##  6 05          98
##  7 06         102
##  8 07         118
##  9 08         139
## 10 09         163
## # … with 14 more rows

# it knows not to sum metrics that are rates:
aggregateGAData(ga_data[,c("hour","bounceRate")], agg_names = "hour")

## # A tibble: 24 x 2
##    hour  bounceRate
##    <chr>      <dbl>
##  1 00          78.0
##  2 01          73.7
##  3 02          76.1
##  4 03          86.0
##  5 04          79.5
##  6 05          70.6
##  7 06          73.4
##  8 07          79.7
##  9 08          72.4
## 10 09          89.1
## # … with 14 more rows
…
